<svg xmlns="http://www.w3.org/2000/svg" height="12.701705922171767" viewBox="10 25 108 80" width="17.147302994931884">
    <path d="m 42.292969,32.894531 c -0.729973,0.01799 -1.454795,0.20183 -2.105469,0.533203 0,0 -6.934301,3.519693 -11.972656,6.716797 -1.255264,0.796532 -2.412366,1.577081 -3.421875,2.396485 -0.495582,0.402254 -1.00471,0.851423 -1.494141,1.408203 -0.259514,0.295225 -1.311531,1.548297 -1.546875,3.177734 -0.167857,1.162116 -0.02488,2.32173 0.751953,3.552735 0.702511,1.113233 1.663718,1.728615 2.419922,2.054687 1.249886,0.538945 2.487208,0.532253 3.117188,0.509766 1.59809,-0.05704 3.300894,-0.400674 5.642578,-0.980469 7.749789,-1.91883 12.112903,-0.778587 15.736328,3.484375 3.550005,4.176584 6.233159,12.805555 6.21289,26.246094 -0.0055,3.621243 0.04888,5.977048 0.574219,8.082031 0.167046,0.669327 0.883157,3.08927 3.087891,4.214844 1.537737,0.785055 2.886627,0.749049 4.246094,0.263672 0.999866,-0.356988 1.752043,-0.971514 2.126953,-1.322266 1.585432,-1.483281 2.337457,-3.105665 3.265625,-4.804688 0.980184,-1.794244 2.063039,-3.888046 3.287109,-6.050781 2.439398,-4.31002 5.589341,-8.895392 8.607422,-11.248047 1.584172,-1.234894 2.922087,-1.90757 4.240234,-2.095703 1.318148,-0.188133 2.7814,0.03392 4.888672,1.162109 2.841213,1.521131 4.891942,2.585862 6.451172,3.31836 0.773981,0.363602 1.444329,0.658418 2.125,0.894531 0.254063,0.08813 1.670177,0.62197 3.205077,0.384766 1.32797,-0.205229 2.66268,-0.782329 3.64844,-2.455078 0.84529,-1.43448 0.73895,-2.949169 0.60937,-3.625 -0.22966,-1.197751 -0.83937,-2.137426 -0.98047,-2.367188 -0.58607,-0.95438 -1.23615,-1.796681 -1.90624,-2.746094 -1.33356,-1.889425 -2.77047,-4.350961 -3.152349,-5.919921 -0.230591,-0.94739 -0.234455,-1.439457 -0.15039,-1.753907 0.08406,-0.314449 0.271399,-0.711356 1.162109,-1.445312 1.50584,-1.240834 2.44271,-2.034317 3.19336,-2.808594 0.16742,-0.172683 0.41572,-0.435787 0.66211,-0.767578 -0.22765,0.30655 0.15411,-0.07735 0.47851,-0.660156 0.32441,-0.58281 0.49554,-1.272881 0.55665,-2.03125 0.12325,-1.527832 -0.18399,-2.780249 -1.61329,-4.074219 -1.10758,-1.002722 -2.51959,-1.242617 -3.01953,-1.275391 -0.99272,-0.06507 -2.169736,0.307488 -1.978513,0.248047 -0.464374,0.144352 -0.756435,0.34269 -1.126953,0.513672 -0.636946,-0.884778 -1.416498,-1.592029 -2.19336,-1.953125 -0.799172,-0.371466 -1.255348,-0.411388 -1.429687,-0.472656 -1.015393,-0.356844 -2.226226,-0.694906 -3.841797,-1.107422 -3.341694,-0.853262 -6.310018,-1.353465 -8.806641,-1.574219 -2.444655,-0.216158 -4.468341,-0.258358 -6.43164,0.261719 -0.239187,0.06336 -1.025546,0.1901 -1.908203,0.714844 -0.882657,0.524744 -1.749133,1.509299 -2.226563,2.736328 -0.385618,0.991066 -0.411757,1.862619 -0.275391,2.685547 -0.620002,0.01238 -1.114662,0.09498 -1.763671,0.08203 -4.518319,-0.09013 -9.614138,-0.815843 -13.740235,-2.388672 -4.139888,-1.578086 -7.138599,-3.842611 -8.6875,-6.982422 a 2.4976247,2.4976247 0 0 0 -0.002,0 c -0.823331,-1.666875 -2.660999,-2.778055 -4.519531,-2.732422 z" id="path14-6-7" style="fill:#26abb0;fill-opacity:1;stroke:#000000;stroke-width:0.264583px;stroke-linecap:butt;stroke-linejoin:miter;stroke-opacity:1" />
    <path d="m 42.355469,35.390625 a 2.4097117,2.4097117 0 0 0 -1.035157,0.261719 c 0,0 -6.90773,3.51773 -11.767578,6.601562 -1.214962,0.770958 -2.303101,1.510296 -3.185546,2.226563 -0.441223,0.358133 -0.831983,0.706082 -1.19336,1.117187 -0.361377,0.411105 -0.796488,0.829263 -0.949219,1.886719 -0.07637,0.528728 0.02258,1.280057 0.390625,1.863281 0.368047,0.583225 0.885152,0.916217 1.296875,1.09375 0.823448,0.355067 1.396075,0.329593 2.039063,0.306641 1.285976,-0.0459 2.851308,-0.343308 5.132812,-0.908203 8.269225,-2.047441 14.034904,-0.654263 18.238282,4.291015 4.203378,4.945278 6.829343,14.107244 6.808593,27.867188 -0.0054,3.580129 0.07968,5.788483 0.5,7.472656 0.210162,0.842087 0.37011,1.866305 1.798829,2.595703 0.714359,0.364699 1.668773,0.351908 2.271484,0.136719 0.60271,-0.215189 0.960701,-0.515127 1.259766,-0.794922 1.196257,-1.11918 1.822987,-2.423619 2.78125,-4.177734 0.958262,-1.754116 2.051388,-3.869608 3.304687,-6.083985 2.506598,-4.428752 5.697675,-9.220264 9.246094,-11.986328 3.548419,-2.766064 6.964882,-3.778068 11.84375,-1.166015 2.827309,1.513687 4.857267,2.56603 6.333984,3.259765 0.738359,0.346868 1.332715,0.60478 1.880859,0.794922 0.548145,0.190142 0.938458,0.440347 2.005858,0.275391 0.5337,-0.08248 1.4231,-0.483712 1.87696,-1.253907 0.45385,-0.770194 0.3878,-1.47359 0.30859,-1.886718 -0.15843,-0.826256 -0.41195,-1.133416 -0.65625,-1.53125 -0.48861,-0.795669 -1.11799,-1.620972 -1.81836,-2.613282 -1.400738,-1.984618 -2.9935,-4.5361 -3.53711,-6.769531 -0.54361,-2.23343 -0.437492,-3.832187 1.849609,-5.716797 1.490171,-1.227922 2.379771,-1.991478 2.988281,-2.61914 0.15213,-0.156916 0.29029,-0.303564 0.44922,-0.517578 0.15893,-0.214015 0.46588,-0.350677 0.55078,-1.404297 0.0425,-0.526811 -0.20046,-1.479769 -0.79883,-2.021485 -0.59837,-0.541716 -1.1731,-0.612823 -1.50781,-0.634765 -0.66943,-0.04388 -0.85951,0.07449 -1.072266,0.140625 -0.851033,0.264546 -1.407694,0.599578 -2.320312,1.076172 -0.3792,0.198028 -0.883063,0.465216 -1.316406,0.695312 0.144599,-0.774962 0.12692,-1.664892 -0.214844,-2.152344 -0.963972,-1.374894 -1.580143,-1.248261 -2.46875,-1.560546 -0.888607,-0.312286 -2.044389,-0.637883 -3.63086,-1.042969 -3.223701,-0.823134 -6.071225,-1.299049 -8.410156,-1.50586 -2.33893,-0.20681 -4.072402,-0.209813 -5.572265,0.1875 -0.749932,0.198657 -1.824529,0.347901 -2.445313,1.94336 -0.310392,0.797729 -0.139305,1.801863 0.177734,2.371093 0.31704,0.569231 0.678158,0.871374 1.021485,1.126954 0.308892,0.229945 0.723042,0.365077 1.070312,0.548828 -1.946884,0.221762 -4.225575,0.359657 -6.6875,0.310547 C 64.454264,47.399605 59.130684,46.664606 54.615234,44.943359 50.099785,43.222113 46.48129,40.594328 44.576172,36.732422 a 2.4097117,2.4097117 0 0 0 -2.220703,-1.341797 z" id="path14-6" style="fill:#2bc5cb;fill-opacity:1;stroke:#000000;stroke-width:0.264583px;stroke-linecap:butt;stroke-linejoin:miter;stroke-opacity:1" />
    <path d="m 42.416016,37.798828 c 0,0 -27.558714,14.072864 -9.910157,9.703125 17.648555,-4.369742 28.077556,6.383375 28.035157,34.5 -0.0424,28.116627 9.22164,-28.184657 31.732422,-16.132812 22.510782,12.051847 -6.164524,-5.502865 5.574218,-15.175782 11.738754,-9.672918 -13.495263,8.217296 -12.574218,1.869141 0.921043,-6.348159 16.603362,-4.542067 4.169921,-7.716797 -12.43344,-3.174731 -18.864804,-0.890882 -8.265625,1.609375 10.599179,2.500254 -29.766539,9.578071 -38.761718,-8.65625 z" id="path14" style="fill:#31e0e9;fill-opacity:1;stroke:#000000;stroke-width:0.264583px;stroke-linecap:butt;stroke-linejoin:miter;stroke-opacity:1" />
    <path d="m 41.652344,40.943359 c -1.198105,0.622285 -3.79083,2.078103 -6.878906,3.855469 3.731747,-0.595469 7.286663,-0.642034 10.464843,0.1875 -1.379047,-1.153274 -2.554345,-2.52705 -3.585937,-4.042969 z m 43.335937,5.503907 c 0.205462,0.535704 0.372197,1.170593 0.22461,1.71875 -0.05461,0.202838 -0.165891,0.263879 -0.238282,0.425781 0.620757,-0.594443 1.27061,-1.171888 1.945313,-1.542969 0.166035,-0.09132 0.28825,-0.08881 0.455078,-0.171875 -0.886565,-0.199141 -1.58745,-0.289922 -2.386719,-0.429687 z m -31.845703,3.023437 c 0.594319,0.544016 1.281076,0.930041 1.820313,1.564453 5.402836,6.356442 7.97086,16.618871 7.949218,30.970703 -0.0017,1.119734 0.08258,1.20228 0.115235,2.046875 0.83259,-1.54722 1.739501,-3.281129 2.859375,-5.259765 2.617054,-4.623911 5.95821,-9.886287 10.46875,-13.402344 4.51054,-3.516057 10.672753,-5.018683 17.037109,-1.611328 0.816547,0.437164 1.098225,0.558772 1.78125,0.917969 -0.935258,-1.582224 -1.805661,-3.318835 -2.287109,-5.296875 -0.397007,-1.631112 -0.410947,-3.447407 0.04883,-5.222657 -1.272983,0.589866 -2.54706,1.308843 -3.736328,1.675782 -1.196122,0.369053 -2.267859,0.704367 -3.714844,0.361328 -0.723492,-0.17152 -1.627247,-0.680502 -2.126953,-1.517578 -0.499706,-0.837076 -0.536782,-1.736483 -0.429688,-2.47461 0.122177,-0.842083 0.44724,-1.555022 0.839844,-2.210937 -0.09895,0.05738 -0.204809,0.149289 -0.296875,0.201172 -0.595781,0.335749 -1.216028,0.564632 -1.931641,0.779297 -2.86245,0.858658 -7.292926,1.381998 -12.441406,1.279296 -5.07609,-0.101257 -10.768181,-0.863515 -15.955078,-2.800781 z" id="path14-3" style="fill:#6af1f9;fill-opacity:1;stroke:#000000;stroke-width:0.264583px;stroke-linecap:butt;stroke-linejoin:miter;stroke-opacity:1" />
    <path d="m 79.902344,54.660156 c -3.079026,0.626244 -6.612493,1.012685 -10.871094,0.927735 -2.43759,-0.04863 -5.036534,-0.294213 -7.654297,-0.679688 2.400536,4.871547 3.795496,10.844773 4.421875,17.830078 2.269491,-3.548744 4.872806,-7.121717 8.517578,-9.96289 2.51494,-1.960447 5.725162,-3.367147 9.195313,-3.878907 -1.106173,-0.509879 -2.262502,-1.261318 -3.001953,-2.5 -0.351322,-0.588511 -0.460659,-1.162617 -0.607422,-1.736328 z" id="path14-3-5" style="fill:#b5f5f9;fill-opacity:1;stroke:#000000;stroke-width:0.264583px;stroke-linecap:butt;stroke-linejoin:miter;stroke-opacity:1" />

</svg>