<?xml version="1.0" standalone="no"?>
<!DOCTYPE svg PUBLIC "-//W3C//DTD SVG 20010904//EN"
 "http://www.w3.org/TR/2001/REC-SVG-20010904/DTD/svg10.dtd">
<svg version="1.0" xmlns="http://www.w3.org/2000/svg"
 width="2692.000000pt" height="2056.000000pt" viewBox="0 0 2692.000000 2056.000000"
 preserveAspectRatio="xMidYMid meet">
<metadata>
Created by potrace 1.15, written by Peter Selinger 2001-2017
</metadata>
<g transform="translate(0.000000,2056.000000) scale(0.100000,-0.100000)"
fill="#000000" stroke="none">
<path d="M14812 16563 l-2222 -3997 -214 435 c-215 437 -1797 3623 -1853 3733
l-30 59 -47 -89 c-26 -49 -928 -1737 -2004 -3752 l-1957 -3664 -2 554 c-2 304
-7 562 -12 573 -5 11 -14 38 -20 60 -14 54 -70 118 -129 147 l-47 23 -2400 0
-2400 0 -45 -22 c-54 -26 -68 -38 -102 -83 -61 -81 -59 -26 -56 -1391 l3
-1244 23 -50 c39 -84 90 -125 187 -150 44 -12 133 -15 427 -15 l370 0 -7 -27
c-3 -16 -13 -41 -21 -57 -8 -16 -14 -36 -14 -44 0 -8 -9 -31 -19 -51 -11 -20
-29 -63 -41 -96 -11 -33 -28 -76 -36 -95 -28 -63 -33 -75 -53 -124 -12 -27
-21 -56 -21 -65 0 -9 -4 -21 -9 -26 -5 -6 -14 -28 -21 -50 -6 -22 -20 -58 -31
-80 -10 -22 -20 -50 -22 -61 -1 -12 -17 -36 -35 -53 -36 -37 -39 -56 -16 -90
19 -26 15 -101 -10 -186 -8 -28 -24 -88 -36 -135 -11 -47 -27 -107 -35 -135
-7 -27 -16 -68 -20 -90 -10 -57 -21 -72 -57 -80 -18 -4 -42 -14 -53 -21 -11
-8 -29 -14 -41 -14 -34 0 -141 -76 -148 -106 -4 -14 -4 -29 -1 -34 11 -18 -29
-124 -71 -190 -64 -100 -154 -283 -154 -313 0 -8 -4 -17 -8 -19 -5 -1 -28 -43
-51 -93 -24 -49 -63 -130 -86 -180 -72 -151 -90 -212 -112 -377 -8 -62 24
-184 65 -242 45 -64 69 -84 112 -92 185 -35 243 -71 418 -257 31 -33 92 -139
92 -160 0 -5 16 -43 35 -84 19 -41 35 -79 35 -84 0 -5 4 -9 8 -9 5 0 15 -15
24 -33 16 -33 31 -47 138 -129 30 -24 60 -48 65 -54 6 -6 26 -21 45 -34 19
-13 42 -31 50 -39 25 -26 100 -145 100 -158 0 -7 3 -13 8 -13 4 0 16 -17 27
-37 11 -20 29 -47 40 -59 11 -12 42 -47 70 -78 44 -50 54 -56 88 -56 51 0 103
28 154 84 23 25 49 46 57 46 21 0 118 43 136 61 22 21 88 69 94 69 9 0 39 32
79 85 47 61 50 109 10 146 -71 64 -141 63 -263 -4 -50 -28 -118 -47 -165 -47
-51 1 -151 25 -173 42 -41 32 -72 64 -72 75 0 6 -6 18 -13 25 -22 24 -37 56
-62 133 -13 41 -43 108 -67 148 -24 40 -51 86 -60 102 -51 90 -88 182 -88 225
0 13 -10 65 -22 115 -20 86 -23 92 -76 141 -62 57 -62 53 11 107 52 39 87 73
87 83 0 5 9 15 19 21 26 16 32 7 60 -92 13 -44 36 -109 52 -145 16 -36 31 -87
34 -115 11 -90 15 -110 28 -145 19 -53 46 -100 57 -100 6 0 10 -7 10 -15 0
-47 136 -44 247 6 37 17 86 39 109 50 22 10 46 19 53 19 20 0 181 81 181 91 0
5 7 9 15 9 9 0 18 7 21 15 4 8 12 15 20 15 8 0 14 6 14 14 0 8 7 16 15 20 11
4 15 21 15 64 0 61 -13 83 -67 111 -27 14 -90 14 -98 1 -3 -5 -16 -10 -28 -10
-12 0 -33 -9 -47 -20 -21 -16 -41 -20 -121 -20 -82 0 -98 3 -117 20 -12 11
-24 20 -27 20 -8 0 -48 41 -67 69 -15 22 -18 51 -18 193 0 151 2 171 21 208
18 33 20 51 15 95 -10 90 -73 192 -146 237 -22 13 -59 23 -128 32 -51 7 -158
-40 -249 -110 -24 -19 -51 -34 -58 -34 -7 0 -15 -4 -17 -8 -5 -14 -142 -110
-171 -121 -26 -10 -27 -9 -27 22 0 17 9 52 20 76 11 24 20 50 20 59 0 8 7 40
16 71 69 243 85 319 78 372 -5 33 0 65 15 115 27 83 45 144 60 201 13 47 35
60 25 16 -6 -30 -28 -109 -45 -160 -40 -127 -44 -181 -10 -167 9 3 30 10 47
14 17 4 44 14 60 22 16 9 63 32 104 52 41 20 96 56 122 79 43 38 48 48 61 112
15 75 14 187 -3 257 -5 24 -10 59 -11 78 -1 38 -96 231 -116 238 -12 3 29 -83
48 -103 5 -5 9 -23 9 -41 0 -28 -5 -34 -43 -49 l-42 -17 -31 36 -31 36 -7 -57
c-3 -32 -9 -96 -12 -143 -7 -85 -24 -130 -50 -130 -17 0 -19 51 -3 100 6 19
15 53 19 75 5 22 14 60 20 85 60 229 61 233 71 258 5 13 9 41 9 62 0 38 -2 40
-30 40 -37 0 -39 19 -7 54 16 18 30 23 45 19 29 -7 29 15 0 27 -18 7 -19 9 -5
9 26 1 77 -85 77 -130 0 -21 -4 -41 -10 -44 -5 -3 -10 -20 -10 -38 l0 -32 20
38 c25 47 28 148 4 167 -33 28 -43 73 -29 131 6 30 20 69 29 86 9 18 16 39 16
48 0 9 14 46 30 82 17 35 30 73 30 83 0 10 4 21 9 24 5 4 21 39 36 79 43 115
87 230 99 260 l11 27 342 0 343 0 0 -2425 0 -2425 -706 -1321 c-388 -727 -704
-1322 -702 -1324 6 -6 24418 -40 24418 -34 0 3 -78 183 -174 400 l-175 394 84
7 c163 12 244 74 280 213 13 48 15 310 15 1875 l0 1820 -480 0 -480 0 0 -590
0 -590 -313 0 -313 0 -977 2213 -977 2212 0 318 0 317 1290 0 1290 0 0 -530 0
-530 480 0 480 0 0 1353 c0 1426 1 1389 -43 1473 -22 41 -75 90 -122 111 -38
17 -150 18 -2268 23 l-2229 5 -2186 4952 c-1203 2724 -2190 4953 -2193 4953
-3 0 -1006 -1799 -2227 -3997z m4314 -1151 l2100 -4757 -195 -5 c-181 -5 -200
-7 -243 -29 -57 -29 -88 -61 -120 -121 l-23 -45 0 -4645 0 -4645 21 -45 c26
-57 76 -106 134 -134 l45 -21 2331 -3 2331 -2 137 -311 c76 -171 136 -312 134
-314 -4 -5 -23848 32 -23853 37 -2 2 247 472 553 1045 l557 1042 5 -637 c4
-426 9 -647 16 -668 32 -86 71 -130 149 -166 l50 -23 620 0 c608 0 621 0 665
21 58 26 108 76 134 134 l21 45 3 2206 2 2206 563 1054 564 1054 209 6 c127 3
225 10 249 18 40 13 99 51 123 81 25 30 52 90 52 114 0 14 5 28 10 31 6 4 10
178 10 490 l0 483 2000 3743 c1100 2059 2003 3745 2008 3747 4 1 475 -941
1047 -2094 571 -1152 1042 -2097 1046 -2099 3 -3 1002 1789 2220 3980 1218
2192 2216 3985 2219 3985 3 0 950 -2141 2106 -4758z m-13499 -7729 c-3 -5
-204 -381 -447 -838 -243 -456 -451 -843 -461 -860 -18 -29 -19 -11 -19 838
l0 867 466 0 c256 0 463 -3 461 -7z m17803 -2018 c474 -1072 864 -1956 867
-1962 4 -10 -175 -13 -876 -13 l-881 0 1 1993 c0 1671 3 1987 14 1962 7 -16
401 -907 875 -1980z m-21750 20 c0 -24 -8 -66 -19 -92 -10 -26 -21 -68 -25
-93 -10 -68 -50 -183 -66 -188 -10 -4 -11 3 -6 29 4 19 11 61 16 94 31 221 51
295 81 295 16 0 19 -8 19 -45z m667 -561 c22 -6 22 -9 18 -118 -2 -61 -4 -148
-4 -193 l-1 -82 -37 -6 c-21 -3 -53 -13 -71 -21 -18 -8 -44 -14 -57 -14 -21 0
-25 5 -25 30 0 31 -14 68 -62 165 -22 42 -32 80 -36 127 l-5 66 34 18 c19 9
48 21 64 25 37 9 153 11 182 3z m613 -595 c0 -47 -71 -118 -160 -160 -119 -55
-152 -69 -169 -69 -10 0 -24 -7 -31 -15 -23 -28 -49 -9 -50 37 0 3 60 36 133
72 112 55 138 72 162 106 41 60 72 82 96 69 12 -6 19 -21 19 -40z m-973 -254
c12 -8 39 -43 59 -78 21 -34 42 -63 46 -65 4 -2 8 -9 8 -16 0 -7 9 -21 20 -31
11 -10 20 -22 20 -26 0 -4 14 -28 30 -52 17 -25 30 -51 30 -57 0 -7 9 -31 19
-54 39 -83 62 -172 52 -197 -14 -32 -36 -59 -48 -59 -6 0 -16 -7 -23 -15 -7
-8 -16 -15 -20 -15 -5 0 -45 32 -91 71 -45 40 -102 84 -126 99 -46 29 -110
105 -132 155 -7 17 -22 62 -32 100 -18 66 -18 73 -2 117 20 57 66 104 119 123
49 18 46 18 71 0z m992 -621 c20 -14 22 -23 18 -57 -3 -22 -13 -44 -21 -49 -9
-5 -16 -13 -16 -19 0 -32 -229 -189 -277 -189 -7 0 -22 -5 -32 -12 -15 -9 -23
-9 -35 1 -20 17 -21 41 -1 41 8 0 15 4 15 8 0 5 20 23 45 41 25 18 71 65 103
104 72 90 80 98 122 124 43 26 50 27 79 7z"/>
<path d="M7739 10641 c-55 -11 -122 -55 -154 -101 -58 -84 -55 46 -55 -2367 0
-1530 3 -2237 11 -2272 21 -98 101 -185 185 -198 19 -3 37 -10 40 -14 3 -5
582 -9 1300 -9 l1294 0 0 -995 0 -995 -465 0 -465 0 0 590 0 590 -950 0 -950
0 2 -1853 3 -1852 24 -48 c34 -69 98 -121 174 -141 57 -16 264 -17 2542 -14
l2480 3 52 24 c64 28 114 81 139 147 18 48 19 123 19 2669 l0 2620 -23 50
c-26 57 -64 100 -107 122 -80 42 -93 43 -1002 43 l-873 0 0 1055 0 1055 530 0
530 0 0 -530 0 -530 475 0 475 0 -2 1378 c-3 1373 -3 1377 -24 1422 -26 58
-76 108 -134 134 l-45 21 -2495 1 c-1372 1 -2511 -1 -2531 -5z"/>
<path d="M15653 10640 c-98 -20 -167 -86 -197 -189 -14 -49 -16 -198 -16
-1403 l0 -1348 -710 -1420 -710 -1420 3 -1828 c2 -1465 5 -1836 16 -1875 19
-69 67 -127 136 -162 l59 -30 1210 0 1211 0 57 28 c73 36 113 85 138 168 19
64 20 101 20 1293 l0 1226 525 0 525 0 2 -1252 3 -1253 24 -52 c28 -64 81
-114 147 -139 46 -18 85 -19 664 -19 570 0 618 1 653 18 59 28 124 93 144 145
17 45 18 240 18 4687 l0 4640 -27 50 c-31 59 -57 85 -118 117 l-45 23 -1845 1
c-1015 1 -1864 -2 -1887 -6z m2277 -3420 l0 -1540 -535 0 -535 0 0 1540 0
1540 535 0 535 0 0 -1540z"/>
<path d="M1452 6722 c-53 -13 -73 -24 -118 -67 -30 -29 -54 -56 -54 -59 0 -10
-53 -80 -63 -84 -4 -2 -2 -11 4 -19 9 -11 10 -22 2 -46 -26 -74 -35 -135 -24
-156 6 -11 11 -30 11 -44 0 -29 29 -56 95 -91 62 -32 105 -35 105 -6 0 11 -7
23 -15 26 -20 8 -19 47 1 87 15 30 80 97 94 97 4 0 33 -9 66 -21 32 -11 69
-23 82 -26 17 -4 22 -12 22 -39 0 -18 -4 -36 -10 -39 -5 -3 -10 -15 -10 -26 0
-10 -4 -19 -8 -19 -11 0 -82 -69 -111 -108 -13 -17 -30 -32 -37 -32 -8 0 -14
-4 -14 -10 0 -21 48 -9 79 20 17 17 31 34 31 39 0 4 23 27 50 50 49 41 50 44
50 96 l0 55 43 -6 42 -6 -1 98 c-1 107 -19 207 -41 225 -7 6 -13 18 -13 25 0
24 -102 81 -174 97 -11 3 -50 -2 -84 -11z"/>
<path d="M875 6195 c-33 -9 -60 -25 -86 -51 -21 -22 -38 -42 -39 -46 0 -4 -28
-49 -62 -100 -34 -51 -80 -127 -101 -168 -22 -41 -43 -77 -47 -80 -3 -3 -21
-31 -38 -63 -30 -55 -32 -62 -28 -150 6 -136 22 -277 36 -317 17 -48 80 -175
109 -222 14 -22 33 -38 43 -38 25 0 35 -32 41 -121 9 -125 29 -155 101 -147
l44 5 -15 -46 c-24 -73 -111 -246 -184 -366 -10 -16 -31 -52 -47 -80 -16 -27
-37 -64 -48 -82 -16 -28 -17 -34 -4 -57 7 -14 18 -26 24 -26 13 0 76 71 76 86
0 6 9 19 20 29 11 10 20 24 20 31 0 14 26 65 60 119 11 17 34 57 51 90 17 33
44 85 60 115 16 30 29 61 29 68 0 6 4 12 8 12 5 0 15 12 22 28 12 26 13 26 24
8 20 -36 136 -144 167 -156 35 -15 48 -7 27 17 -41 47 -86 122 -92 153 -15 77
-22 217 -14 255 5 22 13 72 18 110 10 75 27 149 41 178 20 38 28 55 59 122 17
39 47 102 65 140 19 39 48 102 65 140 18 39 37 79 43 90 95 177 138 292 119
322 -4 6 -20 13 -36 15 -22 2 -34 12 -48 39 -16 31 -80 97 -142 147 -21 17
-66 15 -87 -4 -16 -14 -27 -15 -81 -5 -99 18 -121 19 -173 6z m126 -329 c-12
-12 -21 -25 -21 -29 0 -7 -56 -93 -76 -117 -7 -8 -35 -40 -63 -71 -47 -52 -51
-60 -51 -107 0 -28 5 -63 11 -79 6 -15 14 -48 19 -73 8 -46 21 -88 46 -148 16
-38 19 -118 4 -127 -5 -3 -12 7 -15 22 -3 15 -11 46 -17 68 -11 39 -16 62 -38
175 -5 30 -15 81 -21 112 -14 71 -8 97 33 140 43 44 140 178 164 228 14 27 39
51 42 40 3 -7 -5 -22 -17 -34z m-181 -818 c11 -28 35 -58 44 -58 4 0 18 -10
32 -23 22 -21 25 -30 22 -83 l-3 -59 -20 33 c-32 53 -45 42 -45 -42 0 -73 0
-74 -30 -85 -37 -12 -54 -7 -74 24 -20 31 -20 36 0 28 11 -4 15 -2 13 6 -3 7
-9 12 -14 12 -18 0 -24 25 -26 118 -2 79 0 95 14 103 9 5 17 15 17 23 0 13 17
21 48 24 7 0 17 -9 22 -21z"/>
<path d="M1472 5955 c-2 -41 -12 -75 -40 -128 -20 -40 -40 -73 -44 -75 -5 -2
-8 -7 -8 -12 0 -5 -38 -86 -84 -182 -178 -368 -215 -453 -203 -465 4 -3 12 7
18 23 7 16 52 110 100 209 116 240 139 291 139 307 0 8 5 19 11 25 13 13 23
30 59 100 14 26 28 50 32 53 4 3 19 32 33 64 29 65 31 129 5 134 -12 2 -16
-10 -18 -53z"/>
</g>
</svg>
